INDEX VERSION 1.131+C:\Users\Sync Lab\Desktop\esercizio3\.metadata\.plugins\org.eclipse.jdt.core
3910416300.index
3340966884.index
2035422533.index
1095603785.index
3089345628.index
3503869596.index
2941762184.index
1952388078.index
406294985.index
35556008.index
1389696189.index
951022815.index
3142536386.index
2880005527.index
427313397.index
518545357.index
1026920625.index
3541390006.index
578650990.index
